…
```r
Syd_beach
```

```
## # A tibble: 3,690 x 8
##    BeachId Region    Council   Site   Longitude Latitude Date  `Enterococci (cf…
##      <dbl> <chr>     <chr>     <chr>      <dbl>    <dbl> <chr>             <dbl>
##  1      25 Sydney C… Randwick… Clove…      151.    -33.9 02/0…                19
##  2      25 Sydney C… Randwick… Clove…      151.    -33.9 06/0…                 3
##  3      25 Sydney C… Randwick… Clove…      151.    -33.9 12/0…                 2
##  4      25 Sydney C… Randwick… Clove…      151.    -33.9 18/0…                13
##  5      25 Sydney C… Randwick… Clove…      151.    -33.9 30/0…                 8
##  6      25 Sydney C… Randwick… Clove…      151.    -33.9 05/0…                 7
##  7      25 Sydney C… Randwick… Clove…      151.    -33.9 11/0…                11
##  8      25 Sydney C… Randwick… Clove…      151.    -33.9 23/0…                97
##  9      25 Sydney C… Randwick… Clove…      151.    -33.9 07/0…                 3
## 10      25 Sydney C… Randwick… Clove…      151.    -33.9 25/0…                 0
## # … with 3,680 more rows
```
…
```r
Pinegrove
```

```
## # A tibble: 365 x 4
##    Date            WaterLevel Discharge Rainfall
##    <chr>                <dbl>     <dbl>    <dbl>
##  1 20/08/2018 9:00       1.56       897      1.2
##  2 21/08/2018 9:00       1.49       768      0.2
##  3 22/08/2018 9:00       1.48       753      0  
##  4 23/08/2018 9:00       1.53       839      0  
##  5 24/08/2018 9:00       1.48       758      0  
##  6 25/08/2018 9:00       1.43       665      0  
##  7 26/08/2018 9:00       1.40       625      4  
##  8 27/08/2018 9:00       1.40       620      0  
##  9 28/08/2018 9:00       1.38       596      0  
## 10 29/08/2018 9:00       1.36       552      0  
## # … with 355 more rows
```
…
